594_DM_HW5_Multiply/multiplier.vcd
$date
     Mar 15, 2017       20:41:52
$end

$version
 SystemC 2.3.1-Accellera --- Feb 19 2017 21:56:29
$end

$timescale
     1 ps
$end

$scope module SystemC $end
$var wire    1  aaaaa  clk       $end
$var wire    1  aaaab  rst       $end
$var wire    1  aaaac  start       $end
$var wire    8  aaaad  databus [7:0]  $end
$var wire    1  aaaae  lsb_out       $end
$var wire    1  aaaaf  msb_out       $end
$var wire    1  aaaag  done       $end
$upscope $end
$enddefinitions  $end

$comment
All initial values are dumped below at time 0 sec = 0 timescale units.
$end

$dumpvars
0aaaaa
0aaaab
0aaaac
bZZZZZZZZ aaaad
0aaaae
0aaaaf
0aaaag
$end

#30000
1aaaab

#50000
1aaaaa

#60000
0aaaab

#100000
0aaaaa

#110000
1aaaac

#150000
1aaaaa
b1001 aaaad

#180000
0aaaac

#200000
0aaaaa

#240000
b1101 aaaad

#250000
1aaaaa

#300000
0aaaaa

#350000
1aaaaa

#360000
bZZZZZZZZ aaaad

#400000
0aaaaa

#450000
1aaaaa

#500000
0aaaaa

#550000
1aaaaa

#600000
0aaaaa

#650000
1aaaaa

#700000
0aaaaa

#750000
1aaaaa

#800000
0aaaaa

#850000
1aaaaa

#900000
0aaaaa

#950000
1aaaaa

#1000000
0aaaaa

#1050000
1aaaaa
b1110101 aaaad
1aaaae

#1100000
0aaaaa

#1150000
1aaaaa
b0 aaaad
0aaaae
1aaaaf
1aaaag

#1200000
0aaaaa

#1250000
1aaaaa
bZZZZZZZZ aaaad
0aaaaf
0aaaag

